Unit 01: The Rashomon Quartet – IPD Workshop
…
combined_df <- bind_rows(class_df,
  naive_df_lm, naive_df_dt, naive_df_rf, naive_df_nn,
  ipd_df_lm,   ipd_df_dt,   ipd_df_rf,   ipd_df_nn) |>
  
  mutate(
    conf.low  = estimate - 1.96 * std.error,
    conf.high = estimate + 1.96 * std.error
  )

combined_df

# A tibble: 36 × 8
   term        estimate std.error statistic   p.value method  conf.low conf.high
   <chr>          <dbl>     <dbl>     <dbl>     <dbl> <chr>      <dbl>     <dbl>
 1 (Intercept)  0.00872  3.68e- 2  2.37e- 1 8.13e-  1 Classi…  -0.0634   0.0808 
 2 x1           0.643    1.09e- 1  5.91e+ 0 5.24e-  8 Classi…   0.430    0.856  
 3 x2           0.0702   8.70e- 2  8.07e- 1 4.22e-  1 Classi…  -0.100    0.241  
 4 x3          -0.0791   9.94e- 2 -7.96e- 1 4.28e-  1 Classi…  -0.274    0.116  
 5 (Intercept) -0.0127   4.88e-18 -2.60e+15 0         Naive …  -0.0127  -0.0127 
 6 x1           0.485    1.29e-17  3.77e+16 0         Naive …   0.485    0.485  
 7 x2           0.143    1.31e-17  1.09e+16 0         Naive …   0.143    0.143  
 8 x3          -0.0311   1.31e-17 -2.37e+15 0         Naive …  -0.0311  -0.0311 
 9 (Intercept) -0.0183   6.76e- 3 -2.71e+ 0 6.89e-  3 Naive …  -0.0315  -0.00506
10 x1           0.546    1.78e- 2  3.06e+ 1 1.57e-141 Naive …   0.511    0.581  
# ℹ 26 more rows
…
