Proteomics with AlphaFold – IPD Workshop
…
n_grid <- sort(unique(round(seq(50, 1200, by = 50))))

power_tbl <- tibble(
  
  n = n_grid,
  
  ppi = map_dbl(n_grid, ~ power_at_n(.x, "PPI")),
  
  classical = map_dbl(n_grid, ~ power_at_n(.x, "Classical"))) |>
  
  pivot_longer(-n, names_to = "Method", values_to = "Power")

power_tbl

# A tibble: 48 × 3
       n Method    Power
   <dbl> <chr>     <dbl>
 1    50 ppi           0
 2    50 classical     0
 3   100 ppi           0
 4   100 classical     0
 5   150 ppi           1
 6   150 classical     0
 7   200 ppi           0
 8   200 classical     0
 9   250 ppi           1
10   250 classical     0
# ℹ 38 more rows
…
